<svg xmlns="http://www.w3.org/2000/svg" width="512" height="511.967" viewBox="0 0 512 511.967">
  <g id="helmet" transform="translate(0 -0.006)">
    <g id="Grupo_2" data-name="Grupo 2">
      <g id="Grupo_1" data-name="Grupo 1">
        <path id="Trazado_1" data-name="Trazado 1" d="M511.894,224.153C493.837,75.538,339.868-33.946,180.825,9.693c-48.372,13.272-93.964,46.671-128.38,94.043C19.115,149.613,0,204.677,0,254.809v71.836a45.1,45.1,0,0,0,26.38,40.967l.455.2L358.116,505.37a86.419,86.419,0,0,0,113.646-48.418c1.729-4.351,3.491-9.182,5.256-14.211l13.277,6.638A15,15,0,0,0,512,435.962v-210C512,225.674,511.919,224.364,511.894,224.153ZM443.881,445.872a56.483,56.483,0,0,1-74.269,31.787L38.607,340.214A15.033,15.033,0,0,1,30,326.645V254.808c0-93.571,72.7-192.572,158.764-216.185,131.994-36.217,263.467,47.1,290.09,169.954L292.582,185.293A45.016,45.016,0,0,0,242,229.945v67.476a44.755,44.755,0,0,0,24.875,40.249l183.082,91.541C447.884,435.221,445.828,440.973,443.881,445.872ZM302,216.7V321.691l-21.708-10.853A14.917,14.917,0,0,1,272,297.422V229.946a14.987,14.987,0,0,1,16.86-14.884ZM482,411.692l-150-75V220.454L482,239.2Z" fill="#fbfbfb"/>
      </g>
    </g>
    <g id="Grupo_4" data-name="Grupo 4">
      <g id="Grupo_3" data-name="Grupo 3">
        <path id="Trazado_2" data-name="Trazado 2" d="M120,210.962a60,60,0,1,0,60,60,60,60,0,0,0-60-60Zm0,90a30,30,0,1,1,30-30,30,30,0,0,1-30,30Z" fill="#fbfbfb"/>
      </g>
    </g>
  </g>
</svg>
