<svg xmlns="http://www.w3.org/2000/svg" width="496.227" height="512.004" viewBox="0 0 496.227 512.004">
  <g id="gears" transform="translate(-7.891)">
    <g id="Grupo_2" data-name="Grupo 2">
      <g id="Grupo_1" data-name="Grupo 1">
        <path id="Trazado_1" data-name="Trazado 1" d="M498.773,181.76,473.28,167.04a115.967,115.967,0,0,0,0-35.413l25.493-14.72a10.777,10.777,0,0,0,3.947-14.613l-32-55.467a10.777,10.777,0,0,0-14.613-3.947l-.107.107L431.68,57.6c-7.573-5.76-17.173-11.413-28.373-17.067V10.667C402.667,4.8,397.867,0,392,0H327.467A10.7,10.7,0,0,0,316.8,10.667V39.36c-14.827,4.48-23.573,10.88-32.107,18.453l-26.027-14.72a10.653,10.653,0,0,0-14.507,3.947l-32.32,55.467a10.649,10.649,0,0,0,3.84,14.613l25.28,14.72a115.967,115.967,0,0,0-.107,35.413L215.465,181.76a10.748,10.748,0,0,0-3.947,14.507l32,55.467a10.421,10.421,0,0,0,8.64,5.12l-23.787,14.293c-7.573-5.76-17.173-11.413-29.013-17.067V224a10.7,10.7,0,0,0-10.667-10.667H125.12A11.368,11.368,0,0,0,114.027,224v28.693c-14.4,4.48-23.147,10.88-31.68,18.453L56.32,256.426a10.653,10.653,0,0,0-14.507,3.947L9.706,315.733a10.649,10.649,0,0,0,3.84,14.613l25.28,14.72a115.967,115.967,0,0,0-.107,35.413L13.226,395.092A10.68,10.68,0,0,0,9.28,409.6l32,55.467a10.726,10.726,0,0,0,14.4,4.053l26.667-14.827c8.427,7.467,17.173,13.867,32.747,18.453v28.587A9.8,9.8,0,0,0,125.12,512H188.8a10.7,10.7,0,0,0,10.667-10.667v-30.08c11.84-5.653,21.44-11.2,29.12-17.067l24.32,14.613a10.7,10.7,0,0,0,14.613-3.627.1.1,0,0,1,.107-.107l32-55.467a10.682,10.682,0,0,0-3.947-14.613l-25.493-14.72a115.966,115.966,0,0,0,0-35.413l25.493-14.72a10.678,10.678,0,0,0,3.947-14.507l-32-55.467a9.039,9.039,0,0,0-8.64-5.12l25.707-14.293c8.427,7.467,17.173,13.867,32.107,18.453V288a10.7,10.7,0,0,0,10.667,10.667h64.427A10.084,10.084,0,0,0,402.135,288V257.92c12.267-5.653,21.867-11.2,29.547-17.067L456,255.467a10.609,10.609,0,0,0,14.613-3.627.1.1,0,0,1,.107-.107l32-55.467A10.72,10.72,0,0,0,498.773,181.76ZM276.16,317.12l-22.72,13.12a10.746,10.746,0,0,0-5.12,11.52,94.892,94.892,0,0,1,0,41.707,10.678,10.678,0,0,0,5.12,11.52l22.72,13.12-21.227,36.907-21.44-12.907a10.619,10.619,0,0,0-12.693,1.28c-7.68,7.04-19.733,14.187-35.84,21.333a9.2,9.2,0,0,0-5.653,9.707v26.24H135.574v-26.24a10.022,10.022,0,0,0-8-10.453c-18.24-4.053-25.28-10.453-36.373-20.693a10.646,10.646,0,0,0-12.373-1.493l-24.107,13.44-21.44-37.12,22.827-13.12a10.746,10.746,0,0,0,5.12-11.52,93.319,93.319,0,0,1,.107-41.707,10.678,10.678,0,0,0-5.12-11.52L33.6,317.12,55.253,280l23.573,13.333a11.356,11.356,0,0,0,12.8-1.707c10.667-9.813,17.707-16.32,36.053-20.373,4.907-1.067,8.32-5.44,9.067-10.453V234.667h41.6v26.24a11.7,11.7,0,0,0,6.72,9.707c16.107,7.147,28.16,14.293,35.84,21.333a10.619,10.619,0,0,0,12.693,1.28l21.547-12.907ZM457.6,231.68l-21.44-12.907a10.619,10.619,0,0,0-12.693,1.28c-7.68,7.04-19.733,14.187-35.84,21.333a9.2,9.2,0,0,0-5.653,9.707v26.24H338.24v-26.24a10.022,10.022,0,0,0-8-10.453c-18.24-4.053-25.28-10.453-36.373-20.693a10.646,10.646,0,0,0-12.373-1.493l-24.107,13.44-21.44-37.12,22.827-13.12a10.746,10.746,0,0,0,5.12-11.52A93.319,93.319,0,0,1,264,128.427a10.678,10.678,0,0,0-5.12-11.52l-22.613-13.12,21.653-37.12L281.493,80a11.356,11.356,0,0,0,12.8-1.707C304.96,68.48,312,61.973,330.347,57.92c4.907-1.067,8.32-5.44,9.067-10.453V21.333h41.6v26.24a11.7,11.7,0,0,0,6.72,9.707c16.107,7.147,28.267,14.4,35.84,21.333a10.619,10.619,0,0,0,12.693,1.28L457.6,66.987l21.227,36.8L456,116.907a10.746,10.746,0,0,0-5.12,11.52,94.892,94.892,0,0,1,0,41.707,10.678,10.678,0,0,0,5.12,11.52l22.72,13.12Z" fill="#fbfbfb"/>
        <path id="Trazado_2" data-name="Trazado 2" d="M357.333,96a53.333,53.333,0,1,0,53.333,53.333A53.333,53.333,0,0,0,357.333,96Zm0,85.333a31.957,31.957,0,1,1,22.64-9.36,32,32,0,0,1-22.64,9.36Z" fill="#fbfbfb"/>
        <path id="Trazado_3" data-name="Trazado 3" d="M154.667,309.333A53.333,53.333,0,1,0,208,362.666a53.333,53.333,0,0,0-53.333-53.333Zm0,85.334a31.957,31.957,0,1,1,22.64-9.36A32,32,0,0,1,154.667,394.667Z" fill="#fbfbfb"/>
      </g>
    </g>
  </g>
</svg>
